﻿[
  "USA",
  "CANADA",
  "UK",
  "IRELAND",
  "AUSTRALIA",
  "NEW ZEALAND",
  "JAMAICA",
  "BARBADOS",
  "ST KITTS",
  "GRENADA",
  "TRINIDAD ",
  "TRINIDAD",
  "SIERRA LEONE",
  "SOUTH AFRICA",
  "GERMANY",
  "AUSTRIA",
  "LUXEMBOURG",
  "NETHERLANDS",
  "ICELAND",
  "DENMARK",
  "NORWAY",
  "FINLAND",
  "SWEDEN",
  "BELGIUM",
  "FRANCE",
  "HAITI",
  "CAMEROON",
  "IVORY COAST",
  "RWANDA",
  "SWITZERLAND",
  "ITALY",
  "PORTUGAL",
  "BRAZIL",
  "SPAIN",
  "LATINO",
  "MEXICO",
  "ARGENTINA",
  "CHILE",
  "ECUADOR",
  "COLOMBIA",
  "PERU",
  "URUGUAY",
  "PARAGUAY",
  "COSTA RICA",
  "DOMINICAN REP",
  "NICARAGUA",
  "EL SALVADOR",
  "PUERTO RICO",
  "GUATEMALA",
  "PANAMA",
  "HONDURAS",
  "VENEZUELA",
  "BOLIVIA",
  "ROMANIA",
  "MOLDOVA",
  "ALBANIA",
  "CROATIA",
  "SERBIA",
  "BOSNIA",
  "MACEDONIA",
  "MONTENEGRO",
  "BULGARIA",
  "RUSSIA",
  "BELARUS",
  "UKRAINE",
  "KAZAKHSTAN",
  "KYRGYZSTAN",
  "CZECHIA",
  "SLOVAKIA",
  "POLAND",
  "LATVIA",
  "ESTONIA",
  "HUNGARY",
  "GEORGIA",
  "ARMENIA",
  "GREECE",
  "CYPRUS",
  "TURKEY",
  "AZERBAIJAN",
  "KURDISTAN",
  "ISRAEL",
  "NEPAL",
  "SRI LANKA",
  "INDIA",
  "PAKISTAN",
  "IRAN",
  "AFGHANISTAN",
  "MALTA",
  "LEBANON",
  "SYRIA",
  "JORDAN",
  "PALESTINE",
  "IRAQ",
  "SAUDI ARABIA",
  "UAE",
  "QATAR",
  "KUWAIT",
  "OMAN",
  "YEMEN",
  "EGYPT",
  "TUNISIA",
  "LIBYA",
  "ALGERIA",
  "MOROCCO",
  "SUDAN",
  "ETHIOPIA",
  "SOMALIA",
  "GHANA",
  "NIGERIA",
  "MALAYSIA",
  "INDONESIA",
  "THAILAND",
  "JAPAN",
  "SOUTH KOREA",
  "CHINA",
  "TAIWAN",
  "SINGAPORE",
  "CAMBODIA",
  "VIETNAM",
  "USA LOCAL"
]